<?xml version="1.0" encoding="UTF-8" standalone="no"?>
<svg width="57px" height="62px" viewBox="0 0 57 62" version="1.1" xmlns="http://www.w3.org/2000/svg" xmlns:xlink="http://www.w3.org/1999/xlink" xmlns:sketch="http://www.bohemiancoding.com/sketch/ns">
    <!-- Generator: Sketch 3.4.3 (16618) - http://www.bohemiancoding.com/sketch -->
    <title>ICN Painfree</title>
    <desc>Created with Sketch.</desc>
    <defs></defs>
    <g id="Page-1" stroke="none" stroke-width="1" fill="none" fill-rule="evenodd" sketch:type="MSPage">
        <g id="LZ-Home" sketch:type="MSArtboardGroup" transform="translate(-246.000000, -864.000000)">
            <g id="Features" sketch:type="MSLayerGroup" transform="translate(247.000000, 865.000000)">
                <g id="ICN-Painfree" sketch:type="MSShapeGroup">
                    <ellipse id="Oval-21" stroke="#C9C9C9" stroke-width="2" fill="#FFFFFF" cx="4.05737705" cy="32.2727273" rx="4.05737705" ry="4.09090909"></ellipse>
                    <ellipse id="Oval-21-Copy" stroke="#C9C9C9" stroke-width="2" fill="#FFFFFF" cx="50.942623" cy="32.2727273" rx="4.05737705" ry="4.09090909"></ellipse>
                    <path d="M27.3699652,60 C39.9552075,60 50.1575623,49.7219654 50.1575623,37.0433673 C50.1575623,24.3647691 52.5003745,9.93653693 27.3699652,9.93653693 C2.23955587,9.93653693 4.58236815,24.3647691 4.58236815,37.0433673 C4.58236815,49.7219654 14.7847229,60 27.3699652,60 Z" id="Oval-3" stroke="#C9C9C9" stroke-width="2" fill="#FFFFFF"></path>
                    <path d="M29.9374829,23.6363629 C43.1039268,23.6363629 44.241456,18.1569459 51.3934426,12.7657048 C46.6254515,7.37446364 43.1039265,0.430545063 29.9374826,0.430545063 C16.7710388,0.430545063 4.50819672,7.2727274 4.50819672,23.6363629 C18.0175049,15.0103771 16.771039,23.6363629 29.9374829,23.6363629 Z" id="Oval-8-Copy" stroke="#C9C9C9" stroke-width="2" fill="#FFFFFF"></path>
                    <ellipse id="Oval-4" fill="#C9C9C9" cx="17.8861521" cy="30.1992291" rx="1.64981834" ry="1.6620565"></ellipse>
                    <ellipse id="Oval-4-Copy" fill="#C9C9C9" cx="38.0813686" cy="30.1992291" rx="1.64981834" ry="1.6620565"></ellipse>
                    <path d="M38.4392788,43.1599362 L38.4392773,43.1599389 C36.3183837,46.9826905 32.2616344,49.567336 27.6056539,49.567336 C22.9496733,49.567336 18.8929241,46.9826905 16.7720305,43.1599389" id="Oval-6" stroke="#C9C9C9" stroke-width="2" stroke-linecap="round"></path>
                </g>
            </g>
        </g>
    </g>
</svg>