<?xml version="1.0" encoding="UTF-8" standalone="no"?>
<svg width="72px" height="72px" viewBox="0 0 72 72" version="1.1" xmlns="http://www.w3.org/2000/svg" xmlns:xlink="http://www.w3.org/1999/xlink" xmlns:sketch="http://www.bohemiancoding.com/sketch/ns">
    <!-- Generator: Sketch 3.4.3 (16618) - http://www.bohemiancoding.com/sketch -->
    <title>ICN progressive</title>
    <desc>Created with Sketch.</desc>
    <defs></defs>
    <g id="Page-1" stroke="none" stroke-width="1" fill="none" fill-rule="evenodd" sketch:type="MSPage">
        <g id="LZ-Home" sketch:type="MSArtboardGroup" transform="translate(-593.000000, -868.000000)" stroke="#C9C9C9" stroke-width="2">
            <g id="Features" sketch:type="MSLayerGroup" transform="translate(247.000000, 865.000000)">
                <g id="ICN-progressive" transform="translate(347.000000, 4.000000)" sketch:type="MSShapeGroup">
                    <path d="M34.5,53.4954873 C45.7309592,53.4954873 54.8354505,47.9213089 54.8354505,41.0452115 C54.8354505,34.169114 58.9855424,9.50451273 34.5,9.50451273 C10.0144576,9.50451273 14.1645495,34.169114 14.1645495,41.0452115 C14.1645495,47.9213089 23.2690408,53.4954873 34.5,53.4954873 Z" id="Oval-15"></path>
                    <path d="M39.2905442,1.47511397 C37.0174457,0.201983678 33.2990969,0.201983678 31.0259984,1.47511397 L2.01995116,17.7185004 C-0.251753682,18.9909339 -0.251753682,21.0737945 2.01995116,22.346228 L31.0259984,38.5882207 C33.2990969,39.861351 37.0174457,39.861351 39.2905442,38.5882207 L68.2965914,22.346228 C70.5682963,21.0737945 70.5682963,18.9909339 68.2965914,17.7185004 L39.2905442,1.47511397 Z" id="Fill-1" fill="#FFFFFF"></path>
                    <path d="M51.3333333,61 L56.6666667,61 L58,68.6153846 C58,68.6153846 55.4512346,70 54,70 C52.784568,70 50,68.6153846 50,68.6153846 L51.3333333,61 Z" id="Rectangle-51" fill="#FFFFFF"></path>
                    <path d="M51,56.3541756 L51,33.1924564 L34.3233941,21.8964124 C32.408752,21.551568 31,20.3854612 31,19 C31,17.3431458 33.0147186,16 35.5,16 C37.6708618,16 39.4826937,17.0247936 39.9063873,18.3883086 L56.3058419,29.462772 L57,29 L57,56.3541756 C57.6223634,57.0593088 58,57.9855535 58,59 C58,61.209139 56.209139,63 54,63 C51.790861,63 50,61.209139 50,59 C50,57.9855535 50.3776366,57.0593088 51,56.3541756 Z" id="Rectangle-49" fill="#FFFFFF"></path>
                </g>
            </g>
        </g>
    </g>
</svg>